tomato$3#46
broccoli$1#73
sauce$2#19
patty$1#50
bacon$1#16
mushroom$4#60
steak$4#18
broth$3#38
butter$1#56
cheese$2#48
tortilla chips$2#64
noodles$1#52
banana$4#74
ice cream$5#108
cream cheese$3#36
fudge$4#85
milk$3#27
buns$1#12
lettuce$1#294
seaweed$8#28
bagel bread$4#22
grahm cracker$3#131
flour$1#17
penne noodles$2#76
potato$3#42
cup$1#498
bread$3#40
egg$2#72
turkey$2#30
